{
  "page": 1,
  "per_page": 6,
  "total": 12,
  "total_pages": 2,
  "data": [
    {
      "id": "regex:[\\d]",
      "email": "regex:[a-zA-Z\\d\\_\\.]+@[a-z]+\\.[a-z]{2,4}",
      "first_name": "type:String",
      "last_name": "type:String",
      "avatar": "type:String"
    },
    {
      "id": "regex:[\\d]",
      "email": "regex:[a-zA-Z\\d\\_\\.]+@[a-z]+\\.[a-z]{2,4}",
      "first_name": "type:String",
      "last_name": "type:String",
      "avatar": "type:String"
    },
    {
      "id": "regex:[\\d]",
      "email": "regex:[a-zA-Z\\d\\_\\.]+@[a-z]+\\.[a-z]{2,4}",
      "first_name": "type:String",
      "last_name": "type:String",
      "avatar": "type:String"
    },
    {
      "id": "regex:[\\d]",
      "email": "regex:[a-zA-Z\\d\\_\\.]+@[a-z]+\\.[a-z]{2,4}",
      "first_name": "type:String",
      "last_name": "type:String",
      "avatar": "type:String"
    },
    {
      "id": "regex:[\\d]",
      "email": "regex:[a-zA-Z\\d\\_\\.]+@[a-z]+\\.[a-z]{2,4}",
      "first_name": "type:String",
      "last_name": "type:String",
      "avatar": "type:String"
    },
    {
      "id": "regex:[\\d]",
      "email": "regex:[a-zA-Z\\d\\_\\.]+@[a-z]+\\.[a-z]{2,4}",
      "first_name": "type:String",
      "last_name": "type:String",
      "avatar": "type:String"
    }
  ],
  "support": {
    "url": "https://reqres.in/#support-heading",
    "text": "To keep ReqRes free, contributions towards server costs are appreciated!"
  }
}
